{
	"$schema": "https://raw.githubusercontent.com/martinring/tmlanguage/master/tmlanguage.json",
	"name": "cnatural-server",
	"patterns": [
		{
			"include": "#numeric"
		},
		{
			"include": "#keywords"
		},
		{
			"include": "#strings"
		},
		{
			"include": "#identifiers"
		},
		{
			"include": "#functionNames"
		},
		{
			"include": "#lineComment"
		},
		{
			"include": "#blockComment"
		},
		{
			"include": "#includes"
		},
		{
			"include": "#std"
		},
		{
			"include": "#variables"
		}
	],
	"repository": {
		"keywords": {
			"patterns": [
				{
					"name": "keyword.control.cn",
					"match": "\\b(if|while|for|return|else|include|switch|case|break|import|using)"
				}
			]
		},
		"strings": {
			"patterns": [
				{
					"name": "string.quoted.double.cn",
					"begin": "\"|\\'",
					"end": "\"|\\'"
				}
			]
		},
		"includes": {
			"patterns": [
				{
					"name": "string.quoted.double.cn",
					"match": "<.*>"
				}
			]
		},
		"identifiers": {
			"patterns": [
				{
					"name": "keyword.other.cn",
					"match": "\\b(int|string|class|public|private|bool|void|const|char|NULL|true|false|unsigned|namespace)"
				}
			]
		},
		"lineComment": {
			"patterns": [
				{
					"name": "comment.line.cn",
					"begin": "//",
					"end": "\n"
				}
			]
		},
		"blockComment": {
			"patterns": [
				{
					"name": "comment.block.cn",
					"begin": "/[*]",
					"end": "[*]/"
				}
			]
		},
		"numeric": {
			"patterns": [
				{
					"name": "constant.numeric.cn",
					"match": "\\b([0-9]+)"
				}
			]
		},
		"functionNames": {
			"patterns": [
				{
					"name": "entity.name.function.cn",
					"match": "\\b(\\S+[A-Za-z0-9]+\\()"
				}
			]
		},
		"std": {
			"patterns": [
				{
					"name": "keyword.other.cn",
					"begin": "std::",
					"end": "\\s"
				}
			]
		},
		"variables": {
			"patterns": [
				{
					"name": "variable.cn",
					"match": "[A-Za-z0-9]"
				}
			]
		}
	},
	"scopeName": "source.cn"
}
